Joins Are No Mystery Anymore: Hands-On Tutorial - Part 2 – Numbers Around Us
…
Step-by-Step Code Examples

Loading the datasets:

# Load the necessary libraries
library(dplyr)

# Load the datasets
load("anti_join_data.RData")

# Display the datasets
print(subscriptions)

# A tibble: 30 × 3
   subscription_id customer_id start_date
             <int>       <int> <date>    
 1               1         108 2024-01-01
 2               2         107 2024-01-02
 3               3         110 2024-01-03
 4               4         113 2024-01-04
 5               5         110 2024-01-05
 6               6         111 2024-01-06
 7               7         108 2024-01-07
 8               8         107 2024-01-08
 9               9         107 2024-01-09
10              10         112 2024-01-10
# ℹ 20 more rows
…
Performing the Cross Join

# Perform the cross join
menu_schedule <- tidyr::crossing(menu_items, days_of_week)

# Display the result
print(menu_schedule)

# A tibble: 70 × 5
   item_id item_name category  day_id day_name 
     <int> <chr>     <chr>      <int> <chr>    
 1       1 Pancakes  Breakfast      1 Monday   
 2       1 Pancakes  Breakfast      2 Tuesday  
 3       1 Pancakes  Breakfast      3 Wednesday
 4       1 Pancakes  Breakfast      4 Thursday 
 5       1 Pancakes  Breakfast      5 Friday   
 6       1 Pancakes  Breakfast      6 Saturday 
 7       1 Pancakes  Breakfast      7 Sunday   
 8       2 Sandwich  Lunch          1 Monday   
 9       2 Sandwich  Lunch          2 Tuesday  
10       2 Sandwich  Lunch          3 Wednesday
# ℹ 60 more rows
…
print(order_details)

# A tibble: 40 × 4
   order_detail_id order_id product_id quantity
             <int>    <int>      <int>    <int>
 1               1       17        206       10
 2               2       18        215        4
 3               3       13        218        8
 4               4       16        217        3
 5               5        2        217        5
 6               6        2        203        4
 7               7       20        219        9
 8               8       18        214        4
 9               9       12        218        4
10              10       14        214        4
# ℹ 30 more rows

Performing the Equi Join

# Perform the equi join
orders_with_details <- inner_join(orders, order_details, by = "order_id")

# Display the result
print(orders_with_details)

# A tibble: 40 × 6
   order_id customer_id order_date order_detail_id product_id quantity
      <int>       <int> <date>               <int>      <int>    <int>
 1        1         113 2024-01-01              39        210        5
 2        2         113 2024-01-02               5        217        5
 3        2         113 2024-01-02               6        203        4
 4        2         113 2024-01-02              22        219        1
 5        2         113 2024-01-02              25        220        8
 6        2         113 2024-01-02              36        213        3
 7        2         113 2024-01-02              38        202        9
 8        4         105 2024-01-04              12        215        4
 9        4         105 2024-01-04              24        201        5
10        4         105 2024-01-04              30        219        3
# ℹ 30 more rows
…
