Strategic Ranks and Groups: Mastering Data Battles with Ender’s Tactics – Numbers Around Us
…
Let’s explore how row_number() works in practice, using the built-in mtcars dataset. Imagine you’re analyzing car models grouped by the number of cylinders, and you want to assign a sequential row number to each car within its cylinder group. Here’s how it’s done:

# Load required package
library(dplyr)

# Assign row numbers within each cylinder group
mtcars_with_row_number <- mtcars %>%
  group_by(cyl) %>%
  mutate(row_id = row_number()) %>%
  ungroup()

# View the result
print(mtcars_with_row_number[, c("cyl", "mpg", "row_id")])

# A tibble: 32 × 3
     cyl   mpg row_id
   <dbl> <dbl>  <int>
 1     6  21        1
 2     6  21        2
 3     4  22.8      1
 4     6  21.4      3
 5     8  18.7      1
 6     6  18.1      4
 7     8  14.3      2
 8     4  24.4      2
 9     4  22.8      3
10     6  19.2      5
# ℹ 22 more rows
# ℹ Use `print(n = ...)` to see more rows
…
In battle, prioritization is critical. Ender often relied on strategies to rank threats and opportunities, focusing on the most crucial targets first. Similarly, ranking functions in R help analysts identify and prioritize rows based on specific criteria. Whether you’re sorting cars by fuel efficiency or customers by their purchase history, ranking provides a structured way to assess importance within groups.

Let’s continue with the mtcars dataset. Suppose you want to rank cars by their miles per gallon (mpg) within each cylinder (cyl) group, with the highest mpg receiving the top rank:

# Rank cars by mpg within each cylinder group
ranked_cars <- mtcars %>%
  group_by(cyl) %>%
  mutate(rank_within_cyl = rank(-mpg)) %>%
  ungroup()

# View the result
print(ranked_cars[, c("cyl", "mpg", "rank_within_cyl")])

# A tibble: 32 × 3
     cyl   mpg rank_within_cyl
   <dbl> <dbl>           <dbl>
 1     6  21               2.5
 2     6  21               2.5
 3     4  22.8             8.5
 4     6  21.4             1  
 5     8  18.7             2  
 6     6  18.1             6  
 7     8  14.3            11  
 8     4  24.4             7  
 9     4  22.8             8.5
10     6  19.2             5  
# ℹ 22 more rows
…
In a dynamic battlefield, Ender relied on cumulative intelligence to track progress, identify patterns, and anticipate movements. Similarly, cumulative operations in R allow us to observe trends over time or within groups by calculating running totals or sequential patterns. Functions like cumsum() and cummean() in R are particularly useful for these tasks.

Let’s explore how to use cumsum() to track cumulative miles per gallon (mpg) for cars in the mtcars dataset, grouped by the number of cylinders (cyl):

# Calculate cumulative miles per gallon within each cylinder group
cumulative_mpg <- mtcars %>%
  arrange(cyl, mpg) %>% # Ensure data is ordered by mpg within each group
  group_by(cyl) %>%
  mutate(cum_mpg = cumsum(mpg)) %>%
  ungroup()

# View the result
print(cumulative_mpg[, c("cyl", "mpg", "cum_mpg")])

# A tibble: 32 × 3
     cyl   mpg cum_mpg
   <dbl> <dbl>   <dbl>
 1     4  21.4    21.4
 2     4  21.5    42.9
 3     4  22.8    65.7
 4     4  22.8    88.5
 5     4  24.4   113. 
 6     4  26     139. 
 7     4  27.3   166. 
 8     4  30.4   197. 
 9     4  30.4   227  
10     4  32.4   259. 
# ℹ 22 more rows
…
