…
### Step-by-Step Code Examples

**Loading the datasets**

```r
# Load the necessary libraries
library(dplyr)

# Load the datasets
load("inner_join_data.RData")

# Display the datasets
print(orders, n=5)

# A tibble: 30 × 3
  order_id customer_id order_date
     <int>       <int> <date>    
1        1         102 2024-01-01
2        2         113 2024-01-02
3        3         108 2024-01-03
4        4         111 2024-01-04
5        5         106 2024-01-05
# ℹ 25 more rows

print(payments, n=5)

# A tibble: 20 × 4
  payment_id order_id amount payment_date
       <int>    <int>  <dbl> <date>      
1        201       27  167.  2024-01-05  
2        202       30   80.2 2024-01-06  
3        204       28  110.  2024-01-08  
4        206       24  159.  2024-01-10  
5        207        4  173.  2024-01-11  
# ℹ 15 more rows
```
…
### Step-by-Step Code Examples

**Loading the datasets**

```r
# Load the necessary libraries
library(dplyr)

# Load the datasets
load("left_join_data.RData")

# Display the datasets
print(products, n = 5)

# A tibble: 30 × 3
  product_id product_name category  
       <int> <chr>        <chr>     
1          1 Product A    Category 1
2          2 Product B    Category 3
3          3 Product C    Category 3
4          4 Product D    Category 3
5          5 Product E    Category 3
# ℹ 25 more rows

print(sales, n = 5)

# A tibble: 30 × 4
  sale_id product_id quantity_sold sale_date 
    <int>      <int>         <int> <date>    
1     101          2            10 2024-02-01
2     102         29            10 2024-02-02
3     103         16             6 2024-02-03
4     104         30             5 2024-02-04
5     105         25             4 2024-02-05
# ℹ 25 more rows
```

**Performing the Left Join**

```r
# Perform the left join
products_sales <- left_join(products, sales, by = "product_id")

# Display the result
print(products_sales)

# A tibble: 41 × 6
   product_id product_name category   sale_id quantity_sold sale_date 
        <int> <chr>        <chr>        <int>         <int> <date>    
 1          1 Product A    Category 1     106             7 2024-02-06
 2          2 Product B    Category 3     101            10 2024-02-01
 3          2 Product B    Category 3     118             8 2024-02-18
 4          3 Product C    Category 3      NA            NA NA        
 5          4 Product D    Category 3     107             4 2024-02-07
 6          4 Product D    Category 3     127             2 2024-02-27
 7          5 Product E    Category 3     113             9 2024-02-13
 8          6 Product F    Category 3      NA            NA NA        
 9          7 Product G    Category 1      NA            NA NA        
10          8 Product H    Category 2      NA            NA NA        
# ℹ 31 more rows
```
…
### Step-by-Step Code Examples

**Loading the datasets**

```r
# Load the necessary libraries
library(dplyr)

# Load the datasets
load("right_join_data.RData")

# Display the datasets
print(campaigns, n = 5)

# A tibble: 20 × 3
  campaign_id campaign_name start_date
        <int> <chr>         <date>    
1           2 Campaign B    2024-01-02
2           4 Campaign D    2024-01-04
3           5 Campaign E    2024-01-05
4           7 Campaign G    2024-01-07
5           8 Campaign H    2024-01-08
# ℹ 15 more rows

print(responses, n = 5)

# A tibble: 30 × 3
  response_id campaign_id response_date
        <int>       <int> <date>       
1         101          11 2024-01-05   
2         102          27 2024-01-06   
3         103           2 2024-01-07   
4         104          16 2024-01-08   
5         105          22 2024-01-09   
# ℹ 25 more rows
```
…
### Step-by-Step Code Examples

**Loading the datasets**

```r
# Load the necessary libraries
library(dplyr)

# Load the datasets
load("full_join_data.RData")

# Display the datasets
print(warehouse1, n = 5)

# A tibble: 20 × 3
  product_id product_name quantity
       <int> <chr>           <int>
1          1 Product A         153
2          2 Product B         200
3          3 Product C         111
4          4 Product D         108
5          5 Product E         177
# ℹ 15 more rows

print(warehouse2, n = 5)

# A tibble: 16 × 3
  product_id product_name quantity
       <int> <chr>           <int>
1         15 Product O         161
2         16 Product P          94
3         17 Product Q          63
4         18 Product R          94
5         19 Product S         111
# ℹ 11 more rows
```
…
### Step-by-Step Code Examples

**Loading the datasets**

```r
# Load the necessary libraries
library(dplyr)

# Load the datasets
load("semi_join_data.RData")

# Display the datasets
print(customers, n=5)

# A tibble: 30 × 3
  customer_id name    address    
        <int> <chr>   <chr>      
1           1 Alice F 423 Pine St
2           2 Bob NA  779 Elm St 
3           3 Carol B 257 Oak St 
4           4 Zoe O   452 Elm St 
5           5 Alice F 73 Pine St 
# ℹ 25 more rows

print(orders, n=5)

# A tibble: 30 × 3
  order_id customer_id order_date
     <int>       <int> <date>    
1      101          11 2024-01-01
2      102           3 2024-01-02
3      103          18 2024-01-03
4      104          29 2024-01-04
5      105           9 2024-01-05
# ℹ 25 more rows
```
…
